ID,     FIRST NAME, LAST NAME, AGE, HOURLY PAY, FULL TIME
12345,  Howard, Kells, 23, 5.25, true
21367,  Johann, Lambeth, 42, 7.12, false
76534,  Archie, Markson, 59, 8.00, false
98093,  Beth, Nevilton, 19, 9.16, false
36839,  Clive, Osterman, 22, 20.00, true
34557,  Dennis, Pinkowski, 25, 14.20, true
56732,  Emmet, Ralston, 23, 12.27, false
41086,  Felicity, Smith, 32, 12.00, true
56563,  Gareth, Townsend, 32, 9.78, true
63425,  Ivan, Urkis, 37, 10.15, false
