# Blender v2.78 (sub 0) OBJ File: ''
# www.blender.org
mtllib suzanne.mtl
o Suzanne
v -43.750000 -16.406246 76.562500
v 43.750000 -16.406254 76.562500
v -50.000000 -9.374995 68.750000
v 50.000000 -9.375005 68.750000
v -54.687500 -5.468745 57.812500
v 54.687500 -5.468755 57.812500
v -35.156250 2.343753 61.718750
v 35.156250 2.343747 61.718750
v -35.156250 -3.124997 71.875000
v 35.156250 -3.125003 71.875000
v -35.156250 -13.281247 78.125000
v 35.156250 -13.281253 78.125000
v -27.343752 -16.406248 79.687500
v 27.343748 -16.406252 79.687500
v -20.312500 -9.374998 74.218750
v 20.312500 -9.375002 74.218750
v -15.625001 -5.468749 64.843750
v 15.624999 -5.468751 64.843750
v -7.812502 -24.218750 65.625000
v 7.812498 -24.218750 65.625000
v -14.062502 -24.218748 74.218750
v 14.062498 -24.218752 74.218750
v -24.218752 -24.218748 79.687500
v 24.218748 -24.218752 79.687500
v -27.343754 -32.812496 79.687500
v 27.343746 -32.812504 79.687500
v -20.312504 -39.062500 74.218750
v 20.312496 -39.062500 74.218750
v -15.625004 -43.750000 64.843750
v 15.624996 -43.750000 64.843750
v -35.156254 -51.562496 61.718750
v 35.156246 -51.562504 61.718750
v -35.156254 -45.312496 71.875000
v 35.156246 -45.312504 71.875000
v -35.156254 -35.937496 78.125000
v 35.156246 -35.937504 78.125000
v -43.750004 -32.812496 76.562500
v 43.749996 -32.812504 76.562500
v -50.000004 -39.062496 68.750000
v 49.999996 -39.062504 68.750000
v -54.687504 -43.749996 57.812500
v 54.687496 -43.750004 57.812500
v -62.500004 -24.218744 56.250000
v 62.499996 -24.218756 56.250000
v -56.250004 -24.218744 67.187500
v 56.249996 -24.218756 67.187500
v -46.875004 -24.218746 75.781250
v 46.874996 -24.218754 75.781250
v -47.656254 -24.218746 77.343750
v 47.656246 -24.218754 77.343750
v -44.531254 -33.593746 78.125000
v 44.531246 -33.593754 78.125000
v -35.156254 -37.499996 80.468750
v 35.156246 -37.500004 80.468750
v -26.562504 -33.593746 82.031250
v 26.562496 -33.593754 82.031250
v -22.656252 -24.218748 82.031250
v 22.656248 -24.218752 82.031250
v -26.562502 -15.624998 82.031250
v 26.562498 -15.625002 82.031250
v -35.156254 -24.218746 82.812500
v 35.156246 -24.218754 82.812500
v -35.156250 -11.718747 80.468750
v 35.156250 -11.718753 80.468750
v -44.531250 -15.624996 78.125000
v 44.531250 -15.625004 78.125000
v -0.000004 -42.968750 74.218750
v -0.000003 -35.156250 82.031250
v 0.000006 67.968750 73.437500
v 0.000003 32.031250 78.125000
v 0.000002 18.750000 79.687500
v 0.000007 77.343750 71.875000
v -0.000004 -40.625000 60.156250
v -0.000005 -57.031250 57.031250
v -0.000008 -89.843750 -54.687500
v -0.000005 -56.250000 -85.156250
v -0.000001 -7.031250 -82.812500
v 0.000003 38.281250 -35.156250
v -20.312498 18.750002 56.250000
v 20.312502 18.749998 56.250000
v -31.249996 43.750004 57.031250
v 31.250004 43.749996 57.031250
v -35.156242 69.531250 57.031250
v 35.156258 69.531250 57.031250
v -36.718742 89.062500 53.125000
v 36.718758 89.062500 53.125000
v -32.812492 94.531250 52.343750
v 32.812508 94.531250 52.343750
v -17.968742 96.875000 55.468750
v 17.968758 96.875000 55.468750
v 0.000009 98.437500 57.812500
v -43.750000 14.062504 53.125000
v 43.750000 14.062496 53.125000
v -63.281250 3.906255 53.906250
v 63.281250 3.906245 53.906250
v -82.812500 -14.843742 44.531250
v 82.812500 -14.843758 44.531250
v -85.937500 -42.968742 59.375000
v 85.937500 -42.968758 59.375000
v -71.093758 -48.437492 62.500000
v 71.093742 -48.437508 62.500000
v -49.218754 -60.156246 68.750000
v 49.218746 -60.156254 68.750000
v -32.031258 -75.781250 73.437500
v 32.031242 -75.781250 73.437500
v -15.625007 -71.875000 75.781250
v 15.624993 -71.875000 75.781250
v -6.250004 -49.218750 75.000000
v 6.249996 -49.218750 75.000000
v -16.406254 -41.406250 77.343750
v 16.406246 -41.406250 77.343750
v -12.500003 -30.468748 76.562500
v 12.499997 -30.468752 76.562500
v -20.312500 -9.374998 74.218750
v 20.312500 -9.375002 74.218750
v -37.500000 -1.562497 70.312500
v 37.500000 -1.562503 70.312500
v -49.218750 -6.249996 67.187500
v 49.218750 -6.250004 67.187500
v -62.500000 -18.749994 64.843750
v 62.500000 -18.750006 64.843750
v -64.062500 -29.687494 64.843750
v 64.062500 -29.687506 64.843750
v -60.156254 -37.499996 66.406250
v 60.156246 -37.500004 66.406250
v -42.968754 -43.749996 71.875000
v 42.968746 -43.750004 71.875000
v -25.000004 -46.874996 75.781250
v 24.999996 -46.875004 75.781250
v 0.000007 76.562500 73.437500
v -10.937493 71.875000 73.437500
v 10.937507 71.875000 73.437500
v -11.718742 83.593750 71.093750
v 11.718758 83.593750 71.093750
v -6.249992 88.281250 69.531250
v 6.250008 88.281250 69.531250
v 0.000008 89.062500 68.750000
v 0.000002 19.531250 75.000000
v 0.000001 14.062500 74.218750
v -10.156249 14.843751 74.218750
v 10.156251 14.843749 74.218750
v -12.499998 22.656252 75.000000
v 12.500002 22.656248 75.000000
v -8.593747 28.906250 74.218750
v 8.593753 28.906250 74.218750
v -39.843750 4.687503 67.187500
v 39.843750 4.687497 67.187500
v -61.718750 -5.468745 62.500000
v 61.718750 -5.468755 62.500000
v -72.656250 -20.312494 60.156250
v 72.656250 -20.312506 60.156250
v -74.218750 -37.499992 65.625000
v 74.218750 -37.500008 65.625000
v -68.750000 -41.406242 72.656250
v 68.750000 -41.406258 72.656250
v -43.750004 -54.687496 79.687500
v 43.749996 -54.687504 79.687500
v -31.250006 -64.062500 83.593750
v 31.249994 -64.062500 83.593750
v -20.312506 -61.718750 85.156250
v 20.312494 -61.718750 85.156250
v -10.156254 -42.968750 84.375000
v 10.156246 -42.968750 84.375000
v -12.499999 10.156251 81.250000
v 12.500001 10.156249 81.250000
v -21.093746 44.531250 71.093750
v 21.093754 44.531250 71.093750
v -24.999994 70.312500 68.750000
v 25.000006 70.312500 68.750000
v -26.562492 82.031250 66.406250
v 26.562508 82.031250 66.406250
v -23.437492 91.406250 63.281250
v 23.437508 91.406250 63.281250
v -16.406242 92.968750 63.281250
v 16.406258 92.968750 63.281250
v 0.000008 94.531250 64.062500
v -0.000000 -4.687500 72.656250
v -0.000002 -21.093750 76.562500
v -32.812504 -47.656246 74.218750
v 32.812496 -47.656254 74.218750
v -16.406252 -14.062498 75.000000
v 16.406248 -14.062502 75.000000
v -13.281252 -21.093748 75.781250
v 13.281248 -21.093752 75.781250
v -11.718744 68.750000 73.437500
v 11.718756 68.750000 73.437500
v -7.812496 44.531250 75.000000
v 7.812504 44.531250 75.000000
v 0.000004 44.531250 75.000000
v 0.000003 32.812500 74.218750
v -9.374997 27.343750 78.125000
v 9.375003 27.343750 78.125000
v -13.281248 22.656252 79.687500
v 13.281252 22.656248 79.687500
v -10.937499 13.281251 78.125000
v 10.937501 13.281249 78.125000
v -3.906249 12.500000 78.125000
v 3.906251 12.500000 78.125000
v 0.000002 20.312500 82.812500
v -4.687499 14.843750 81.250000
v 4.687501 14.843750 81.250000
v -9.374999 15.625001 81.250000
v 9.375001 15.624999 81.250000
v -10.937498 22.656252 82.812500
v 10.937502 22.656248 82.812500
v -7.812498 25.000000 80.468750
v 7.812502 25.000000 80.468750
v 0.000003 28.906250 80.468750
v -25.781248 31.250002 55.468750
v 25.781252 31.249998 55.468750
v -16.406248 24.218752 71.093750
v 16.406252 24.218748 71.093750
v -17.968748 31.250002 71.093750
v 17.968752 31.249998 71.093750
v -23.437498 25.000002 55.468750
v 23.437502 24.999998 55.468750
v 0.000008 87.500000 68.750000
v -4.687492 86.718750 68.750000
v 4.687508 86.718750 68.750000
v -9.374992 82.031250 71.093750
v 9.375008 82.031250 71.093750
v -9.374993 74.218750 72.656250
v 9.375007 74.218750 72.656250
v 0.000007 78.125000 65.625000
v -9.374993 75.000000 66.406250
v 9.375007 75.000000 66.406250
v -9.374993 81.250000 64.062500
v 9.375007 81.250000 64.062500
v -4.687492 85.156250 63.281250
v 4.687508 85.156250 63.281250
v 0.000008 85.937500 63.281250
v -17.187502 -21.874998 78.125000
v 17.187498 -21.875002 78.125000
v -18.750002 -15.624998 77.343750
v 18.749998 -15.625002 77.343750
v -33.593754 -42.968746 75.781250
v 33.593746 -42.968754 75.781250
v -27.343754 -42.187496 77.343750
v 27.343746 -42.187504 77.343750
v -42.187504 -39.843746 77.343750
v 42.187496 -39.843754 77.343750
v -56.250004 -35.156246 69.531250
v 56.249996 -35.156254 69.531250
v -58.593754 -28.906244 68.750000
v 58.593746 -28.906256 68.750000
v -57.812500 -19.531244 67.968750
v 57.812500 -19.531256 67.968750
v -47.656250 -10.156246 71.875000
v 47.656250 -10.156254 71.875000
v -37.500000 -6.249997 74.218750
v 37.500000 -6.250003 74.218750
v -22.656252 -10.937498 78.125000
v 22.656248 -10.937502 78.125000
v -17.968752 -29.687498 78.125000
v 17.968748 -29.687502 78.125000
v -21.093754 -37.500000 78.125000
v 21.093746 -37.500000 78.125000
v -23.437504 -35.937496 75.781250
v 23.437496 -35.937504 75.781250
v -19.531252 -29.687498 75.781250
v 19.531248 -29.687502 75.781250
v -24.218752 -12.499998 75.781250
v 24.218748 -12.500002 75.781250
v -37.500000 -8.593747 72.656250
v 37.500000 -8.593753 72.656250
v -46.093750 -11.718746 70.312500
v 46.093750 -11.718754 70.312500
v -54.687500 -21.093744 67.187500
v 54.687500 -21.093756 67.187500
v -55.468754 -28.124994 67.187500
v 55.468746 -28.125006 67.187500
v -53.125004 -33.593746 67.968750
v 53.124996 -33.593754 67.968750
v -41.406254 -39.062496 75.000000
v 41.406246 -39.062504 75.000000
v -28.125004 -39.843746 76.562500
v 28.124996 -39.843754 76.562500
v -33.593754 -40.624996 75.000000
v 33.593746 -40.625004 75.000000
v -20.312502 -17.187498 75.000000
v 20.312498 -17.187502 75.000000
v -19.531252 -22.656248 75.000000
v 19.531248 -22.656252 75.000000
v -10.937504 -46.093750 60.937500
v 10.937496 -46.093750 60.937500
v -19.531256 -66.406250 61.718750
v 19.531244 -66.406250 61.718750
v -33.593758 -68.750000 59.375000
v 33.593742 -68.750000 59.375000
v -48.437504 -55.468746 55.468750
v 48.437496 -55.468754 55.468750
v -67.968758 -45.312492 49.218750
v 67.968742 -45.312508 49.218750
v -79.687500 -40.624992 46.093750
v 79.687500 -40.625008 46.093750
v -77.343750 -16.406242 37.500000
v 77.343750 -16.406258 37.500000
v -60.156250 0.000005 41.406250
v 60.156250 -0.000005 41.406250
v -43.750000 9.375004 46.875000
v 43.750000 9.374996 46.875000
v -0.000008 -89.843750 28.906250
v -0.000009 -98.437500 -7.812500
v 0.000002 19.531250 -67.187500
v 0.000004 46.093750 18.750000
v 0.000009 97.656250 46.093750
v 0.000007 80.468750 34.375000
v 0.000005 57.031250 32.031250
v 0.000004 48.437500 28.125000
v -85.156250 -23.437492 5.468750
v 85.156250 -23.437508 5.468750
v -85.937500 -32.031242 -4.687500
v 85.937500 -32.031258 -4.687500
v -77.343750 -26.562492 -43.750000
v 77.343750 -26.562508 -43.750000
v -46.093754 -43.749996 -70.312500
v 46.093746 -43.750004 -70.312500
v -73.437500 4.687506 7.031250
v 73.437500 4.687494 7.031250
v -59.375000 12.500005 -16.406250
v 59.375000 12.499995 -16.406250
v -64.062500 0.781256 -42.968750
v 64.062500 0.781244 -42.968750
v -33.593750 -5.468747 -66.406250
v 33.593750 -5.468753 -66.406250
v -23.437496 35.156254 40.625000
v 23.437504 35.156246 40.625000
v -17.968746 41.406250 25.781250
v 17.968754 41.406250 25.781250
v -28.906244 71.093750 38.281250
v 28.906256 71.093750 38.281250
v -24.999996 50.000004 39.062500
v 25.000004 49.999996 39.062500
v -32.812492 91.406250 39.843750
v 32.812508 91.406250 39.843750
v -14.062493 75.781250 36.718750
v 14.062507 75.781250 36.718750
v -12.499995 53.906250 35.937500
v 12.500005 53.906250 35.937500
v -16.406242 94.531250 43.750000
v 16.406258 94.531250 43.750000
v -21.874998 28.125002 42.968750
v 21.875002 28.124998 42.968750
v -21.093748 22.656252 46.875000
v 21.093752 22.656248 46.875000
v -20.312498 17.187502 50.000000
v 20.312502 17.187498 50.000000
v -21.093746 39.062500 16.406250
v 21.093754 39.062500 16.406250
v -29.687498 31.250002 -26.562500
v 29.687502 31.249998 -26.562500
v -34.375000 14.843753 -53.906250
v 34.375000 14.843747 -53.906250
v -45.312508 -86.718742 -38.281250
v 45.312492 -86.718758 -38.281250
v -45.312508 -92.968742 -7.031250
v 45.312492 -92.968758 -7.031250
v -45.312508 -85.156242 23.437500
v 45.312492 -85.156258 23.437500
v -46.093754 -52.343746 42.968750
v 46.093746 -52.343754 42.968750
v -72.656250 -40.624992 33.593750
v 72.656250 -40.625008 33.593750
v -63.281254 -45.312496 28.125000
v 63.281246 -45.312504 28.125000
v -64.062508 -70.312492 5.468750
v 64.062492 -70.312508 5.468750
v -79.687508 -56.249992 12.500000
v 79.687492 -56.250008 12.500000
v -79.687508 -61.718742 -11.718750
v 79.687492 -61.718758 -11.718750
v -64.062508 -74.999992 -19.531250
v 64.062492 -75.000008 -19.531250
v -64.062508 -67.968742 -44.531250
v 64.062492 -67.968758 -44.531250
v -79.687508 -53.906242 -35.937500
v 79.687492 -53.906258 -35.937500
v -61.718754 -32.812496 -58.593750
v 61.718746 -32.812504 -58.593750
v -48.437500 -2.343746 -54.687500
v 48.437500 -2.343754 -54.687500
v -82.031250 -32.812492 -20.312500
v 82.031250 -32.812508 -20.312500
v -40.625000 17.187504 14.843750
v 40.625000 17.187496 14.843750
v -42.968750 19.531254 -21.093750
v 42.968750 19.531246 -21.093750
v -89.062500 -40.624992 -23.437500
v 89.062500 -40.625008 -23.437500
v -77.343750 14.062507 -12.500000
v 77.343750 14.062493 -12.500000
v -103.906250 10.156260 -32.812500
v 103.906250 10.156240 -32.812500
v -128.125000 -5.468739 -42.968750
v 128.125000 -5.468761 -42.968750
v -135.156250 -32.031239 -42.187500
v 135.156250 -32.031261 -42.187500
v -123.437508 -50.781239 -42.187500
v 123.437492 -50.781261 -42.187500
v -102.343758 -47.656242 -31.250000
v 102.343742 -47.656258 -31.250000
v -101.562500 -41.406242 -28.906250
v 101.562500 -41.406258 -28.906250
v -118.750008 -43.749989 -39.062500
v 118.749992 -43.750011 -39.062500
v -126.562500 -28.906239 -40.625000
v 126.562500 -28.906261 -40.625000
v -121.093750 -7.812490 -40.625000
v 121.093750 -7.812510 -40.625000
v -103.125000 3.906259 -30.468750
v 103.125000 3.906241 -30.468750
v -82.812500 7.031257 -13.281250
v 82.812500 7.031243 -13.281250
v -92.187500 -35.937492 -21.875000
v 92.187500 -35.937508 -21.875000
v -94.531250 -30.468742 -28.906250
v 94.531250 -30.468758 -28.906250
v -88.281250 2.343758 -21.093750
v 88.281250 2.343742 -21.093750
v -103.906250 0.000009 -36.718750
v 103.906250 -0.000009 -36.718750
v -118.750000 -9.374990 -44.531250
v 118.750000 -9.375010 -44.531250
v -123.437500 -24.999989 -44.531250
v 123.437500 -25.000011 -44.531250
v -117.187500 -35.937489 -43.750000
v 117.187500 -35.937511 -43.750000
v -102.343750 -34.374992 -35.937500
v 102.343750 -34.375008 -35.937500
v -84.375000 -28.906242 -21.093750
v 84.375000 -28.906258 -21.093750
v -83.593750 -17.187492 -27.343750
v 83.593750 -17.187508 -27.343750
v -75.781250 -9.374993 -27.343750
v 75.781250 -9.375007 -27.343750
v -82.031250 -8.593742 -27.343750
v 82.031250 -8.593758 -27.343750
v -84.375000 -1.562493 -27.343750
v 84.375000 -1.562507 -27.343750
v -81.250000 1.562507 -27.343750
v 81.250000 1.562493 -27.343750
v -72.656250 0.000006 -7.031250
v 72.656250 -0.000006 -7.031250
v -71.875000 2.343756 -17.187500
v 71.875000 2.343744 -17.187500
v -71.875000 -3.906244 -18.750000
v 71.875000 -3.906256 -18.750000
v -79.687500 -20.312492 -21.093750
v 79.687500 -20.312508 -21.093750
v -89.062500 -24.218742 -26.562500
v 89.062500 -24.218758 -26.562500
v -89.062500 -23.437492 -32.031250
v 89.062500 -23.437508 -32.031250
v -81.250000 1.562507 -32.031250
v 81.250000 1.562493 -32.031250
v -85.156250 -1.562493 -32.031250
v 85.156250 -1.562507 -32.031250
v -82.812500 -7.812493 -32.031250
v 82.812500 -7.812507 -32.031250
v -76.562500 -9.374993 -32.031250
v 76.562500 -9.375007 -32.031250
v -84.375000 -17.187492 -32.031250
v 84.375000 -17.187508 -32.031250
v -103.906250 -32.812492 -41.406250
v 103.906250 -32.812508 -41.406250
v -118.750000 -34.374989 -48.437500
v 118.750000 -34.375011 -48.437500
v -125.781250 -24.218739 -49.218750
v 125.781250 -24.218761 -49.218750
v -121.093750 -8.593740 -48.437500
v 121.093750 -8.593760 -48.437500
v -104.687500 0.000009 -42.187500
v 104.687500 -0.000009 -42.187500
v -88.281250 1.562508 -26.562500
v 88.281250 1.562492 -26.562500
v -95.312500 -28.906242 -34.375000
v 95.312500 -28.906258 -34.375000
v -89.062500 -10.937492 -32.812500
v 89.062500 -10.937508 -32.812500
v -93.750000 -6.249992 -33.593750
v 93.750000 -6.250008 -33.593750
v -100.000000 -12.499991 -36.718750
v 100.000000 -12.500009 -36.718750
v -96.093750 -17.187492 -35.156250
v 96.093750 -17.187508 -35.156250
v -101.562500 -23.437490 -37.500000
v 101.562500 -23.437510 -37.500000
v -105.468750 -18.749990 -38.281250
v 105.468750 -18.750010 -38.281250
v -110.937500 -21.093740 -39.062500
v 110.937500 -21.093760 -39.062500
v -108.593750 -27.343740 -39.062500
v 108.593750 -27.343760 -39.062500
v -102.343758 -43.749992 -48.437500
v 102.343742 -43.750008 -48.437500
v -125.000008 -46.874989 -54.687500
v 124.999992 -46.875011 -54.687500
v -136.718750 -29.687489 -50.000000
v 136.718750 -29.687511 -50.000000
v -131.250000 -5.468739 -53.125000
v 131.250000 -5.468761 -53.125000
v -103.906250 8.593760 -49.218750
v 103.906250 8.593740 -49.218750
v -78.906250 12.500007 -32.812500
v 78.906250 12.499993 -32.812500
v -85.937500 -38.281242 -38.281250
v 85.937500 -38.281258 -38.281250
vt 0.2253 0.7780
vt 0.2256 0.7625
vt 0.2482 0.7544
vt 0.2488 0.7885
vt 0.0294 0.7514
vt 0.0516 0.7605
vt 0.0512 0.7761
vt 0.0273 0.7855
vt 0.2778 0.7490
vt 0.2755 0.8004
vt 0.0001 0.7447
vt 0.0001 0.7962
vt 0.2248 0.7305
vt 0.2410 0.7072
vt 0.0387 0.7046
vt 0.0539 0.7286
vt 0.2140 0.7500
vt 0.0637 0.7486
vt 0.1982 0.7498
vt 0.1921 0.7299
vt 0.0865 0.7295
vt 0.0796 0.7491
vt 0.1829 0.7015
vt 0.0970 0.7015
vt 0.1652 0.7506
vt 0.1392 0.7408
vt 0.1389 0.7427
vt 0.1125 0.7514
vt 0.1853 0.7601
vt 0.0920 0.7599
vt 0.1856 0.7777
vt 0.1664 0.7852
vt 0.1098 0.7859
vt 0.0909 0.7775
vt 0.1413 0.7994
vt 0.1342 0.8012
vt 0.1895 0.8094
vt 0.1830 0.8374
vt 0.0909 0.8372
vt 0.0856 0.8090
vt 0.1963 0.7895
vt 0.0797 0.7888
vt 0.2133 0.7897
vt 0.2230 0.8108
vt 0.0521 0.8089
vt 0.0627 0.7883
vt 0.2377 0.8374
vt 0.0362 0.8348
vt 0.2116 0.7868
vt 0.2228 0.7770
vt 0.0645 0.7854
vt 0.0538 0.7751
vt 0.1976 0.7848
vt 0.0786 0.7841
vt 0.1897 0.7756
vt 0.0869 0.7753
vt 0.1907 0.7627
vt 0.0865 0.7623
vt 0.1993 0.7542
vt 0.0782 0.7534
vt 0.2114 0.7541
vt 0.0662 0.7527
vt 0.2223 0.7633
vt 0.0549 0.7614
vt 0.2050 0.7692
vt 0.0719 0.7681
vt 0.6791 0.0570
vt 0.6613 0.0570
vt 0.6521 0.0169
vt 0.6730 0.0126
vt 0.3686 0.0052
vt 0.3579 0.0462
vt 0.3394 0.0457
vt 0.3471 0.0001
vt 0.6825 0.0793
vt 0.6640 0.0705
vt 0.3546 0.0600
vt 0.3353 0.0685
vt 0.6802 0.0875
vt 0.6540 0.0856
vt 0.3645 0.0758
vt 0.3374 0.0770
vt 0.6694 0.1152
vt 0.6383 0.1049
vt 0.3800 0.0962
vt 0.3476 0.1058
vt 0.6572 0.1742
vt 0.6089 0.1655
vt 0.4083 0.1594
vt 0.3584 0.1668
vt 0.6369 0.2571
vt 0.6559 0.3204
vt 0.6170 0.3313
vt 0.5509 0.2836
vt 0.3948 0.3281
vt 0.3556 0.3161
vt 0.3766 0.2522
vt 0.4631 0.2820
vt 0.6606 0.3647
vt 0.6412 0.3738
vt 0.3692 0.3706
vt 0.3498 0.3610
vt 0.6683 0.4090
vt 0.6415 0.4016
vt 0.3683 0.3989
vt 0.3410 0.4058
vt 0.6417 0.4294
vt 0.6302 0.4224
vt 0.3794 0.4202
vt 0.3676 0.4270
vt 0.6282 0.4381
vt 0.6196 0.4259
vt 0.3901 0.4239
vt 0.3811 0.4361
vt 0.5969 0.4483
vt 0.5877 0.4346
vt 0.4222 0.4332
vt 0.4126 0.4469
vt 0.5752 0.4514
vt 0.5733 0.4405
vt 0.4367 0.4394
vt 0.4345 0.4503
vt 0.5653 0.4515
vt 0.5635 0.4408
vt 0.4465 0.4399
vt 0.4445 0.4506
vt 0.5290 0.4512
vt 0.5349 0.4252
vt 0.4755 0.4247
vt 0.4810 0.4508
vt 0.5050 0.4476
vt 0.5053 0.4133
vt 0.5497 0.4140
vt 0.5656 0.4199
vt 0.4448 0.4188
vt 0.4609 0.4132
vt 0.5763 0.4205
vt 0.4339 0.4192
vt 0.5907 0.4183
vt 0.4194 0.4167
vt 0.6146 0.4141
vt 0.3954 0.4120
vt 0.6239 0.4067
vt 0.3861 0.4043
vt 0.6292 0.3912
vt 0.3810 0.3885
vt 0.6209 0.3619
vt 0.3901 0.3591
vt 0.6038 0.3427
vt 0.4079 0.3400
vt 0.5607 0.3435
vt 0.4514 0.3420
vt 0.5489 0.3546
vt 0.5065 0.3244
vt 0.4630 0.3535
vt 0.5375 0.3929
vt 0.4736 0.3922
vt 0.5058 0.3705
vt 0.5395 0.3710
vt 0.4720 0.3702
vt 0.6356 0.0412
vt 0.6321 0.0243
vt 0.3889 0.0134
vt 0.3848 0.0307
vt 0.6322 0.0598
vt 0.3877 0.0500
vt 0.6055 0.0820
vt 0.4145 0.0737
vt 0.5689 0.1543
vt 0.6034 0.0910
vt 0.4163 0.0831
vt 0.4497 0.1493
vt 0.5551 0.2049
vt 0.5343 0.1804
vt 0.5464 0.1462
vt 0.4732 0.1418
vt 0.4843 0.1775
vt 0.4619 0.2018
vt 0.5713 0.0787
vt 0.4498 0.0714
vt 0.5830 0.0551
vt 0.4385 0.0467
vt 0.5605 0.2331
vt 0.5440 0.2312
vt 0.5452 0.2151
vt 0.4716 0.2127
vt 0.4721 0.2292
vt 0.4552 0.2304
vt 0.5453 0.2593
vt 0.5375 0.2485
vt 0.4778 0.2471
vt 0.4696 0.2576
vt 0.5082 0.2632
vt 0.5230 0.2520
vt 0.4920 0.2513
vt 0.5054 0.2490
vt 0.5083 0.2392
vt 0.5256 0.1888
vt 0.4930 0.1866
vt 0.5354 0.2199
vt 0.5190 0.1996
vt 0.4814 0.2181
vt 0.4993 0.1981
vt 0.5086 0.2269
vt 0.5239 0.2432
vt 0.4917 0.2423
vt 0.5332 0.2419
vt 0.4824 0.2406
vt 0.5364 0.2301
vt 0.4798 0.2286
vt 0.5819 0.2324
vt 0.4334 0.2289
vt 0.5917 0.2065
vt 0.4244 0.2021
vt 0.6500 0.2145
vt 0.3645 0.2082
vt 0.6445 0.2348
vt 0.3696 0.2292
vt 0.5854 0.0517
vt 0.6061 0.0740
vt 0.4361 0.0432
vt 0.4141 0.0655
vt 0.6257 0.0577
vt 0.3945 0.0481
vt 0.6299 0.0387
vt 0.3907 0.0283
vt 0.6282 0.0255
vt 0.3929 0.0148
vt 0.6153 0.0387
vt 0.6131 0.0280
vt 0.4058 0.0288
vt 0.4084 0.0179
vt 0.6156 0.0490
vt 0.4052 0.0394
vt 0.6083 0.0556
vt 0.4124 0.0465
vt 0.5965 0.0395
vt 0.4252 0.0302
vt 0.5552 0.3611
vt 0.5492 0.3742
vt 0.4565 0.3598
vt 0.4622 0.3732
vt 0.5502 0.3906
vt 0.4609 0.3896
vt 0.5570 0.4055
vt 0.4537 0.4045
vt 0.5661 0.3537
vt 0.4457 0.3521
vt 0.5969 0.3536
vt 0.4146 0.3513
vt 0.6115 0.3671
vt 0.3995 0.3645
vt 0.6208 0.3883
vt 0.3897 0.3858
vt 0.6157 0.4018
vt 0.3945 0.3995
vt 0.6092 0.4093
vt 0.4009 0.4072
vt 0.5893 0.4115
vt 0.4210 0.4099
vt 0.5775 0.4136
vt 0.4329 0.4123
vt 0.5680 0.4124
vt 0.4425 0.4112
vt 0.5624 0.4018
vt 0.5694 0.4089
vt 0.4484 0.4006
vt 0.4412 0.4076
vt 0.5778 0.4101
vt 0.4327 0.4087
vt 0.5887 0.4087
vt 0.4217 0.4071
vt 0.6060 0.4046
vt 0.4042 0.4026
vt 0.6117 0.3985
vt 0.3986 0.3962
vt 0.6151 0.3886
vt 0.3954 0.3862
vt 0.6077 0.3697
vt 0.4033 0.3672
vt 0.5957 0.3591
vt 0.4157 0.3568
vt 0.5689 0.3590
vt 0.4427 0.3574
vt 0.5599 0.3666
vt 0.4517 0.3653
vt 0.5558 0.3900
vt 0.4552 0.3889
vt 0.5568 0.3765
vt 0.4545 0.3753
vt 0.5330 0.4910
vt 0.5049 0.4857
vt 0.4765 0.4907
vt 0.5680 0.4643
vt 0.4416 0.4635
vt 0.5800 0.4600
vt 0.4296 0.4590
vt 0.6051 0.4703
vt 0.4040 0.4690
vt 0.6408 0.4527
vt 0.3681 0.4506
vt 0.6539 0.4406
vt 0.3550 0.4381
vt 0.6823 0.4125
vt 0.3267 0.4091
vt 0.6869 0.3662
vt 0.3230 0.3619
vt 0.6760 0.3215
vt 0.3351 0.3167
vt 0.7956 0.1291
vt 0.8083 0.1567
vt 0.7667 0.2148
vt 0.7582 0.1514
vt 0.2450 0.2053
vt 0.2037 0.1445
vt 0.2175 0.1164
vt 0.2553 0.1404
vt 0.7655 0.0562
vt 0.7365 0.0904
vt 0.2506 0.0423
vt 0.2795 0.0784
vt 0.7094 0.0158
vt 0.7024 0.0596
vt 0.3095 0.0023
vt 0.3154 0.0476
vt 0.6947 0.0840
vt 0.3226 0.0730
vt 0.7066 0.1121
vt 0.3096 0.1015
vt 0.7180 0.1697
vt 0.2962 0.1604
vt 0.7017 0.2174
vt 0.3115 0.2097
vt 0.6878 0.2384
vt 0.6693 0.2507
vt 0.3438 0.2447
vt 0.3252 0.2316
vt 0.6553 0.2612
vt 0.3577 0.2558
vt 0.9999 0.5000
vt 0.9065 0.4683
vt 0.9008 0.4140
vt 0.9999 0.4072
vt 0.1032 0.4068
vt 0.0964 0.4625
vt 0.0001 0.4936
vt 0.0016 0.3982
vt 0.8727 0.3408
vt 0.9553 0.2988
vt 0.1335 0.3322
vt 0.0495 0.2874
vt 0.7900 0.2404
vt 0.8290 0.1781
vt 0.2205 0.2309
vt 0.1818 0.1661
vt 0.7478 0.3971
vt 0.7300 0.4447
vt 0.2604 0.3921
vt 0.2776 0.4409
vt 0.9370 0.6284
vt 0.8579 0.5385
vt 0.1452 0.5351
vt 0.0630 0.6262
vt 0.5730 0.6384
vt 0.6547 0.5595
vt 0.7090 0.5852
vt 0.6781 0.6993
vt 0.2969 0.5845
vt 0.3526 0.5589
vt 0.4351 0.6398
vt 0.3275 0.7012
vt 0.7711 0.5923
vt 0.8291 0.7002
vt 0.2334 0.5911
vt 0.1729 0.7009
vt 0.6697 0.4582
vt 0.6648 0.4797
vt 0.3387 0.4557
vt 0.3433 0.4777
vt 0.7053 0.4897
vt 0.7004 0.5272
vt 0.3020 0.4871
vt 0.3064 0.5254
vt 0.7388 0.5095
vt 0.7424 0.5454
vt 0.2675 0.5069
vt 0.2633 0.5435
vt 0.7764 0.5097
vt 0.7858 0.5438
vt 0.2289 0.5066
vt 0.2189 0.5413
vt 0.8075 0.4741
vt 0.8349 0.5017
vt 0.1691 0.4978
vt 0.1971 0.4702
vt 0.6176 0.4928
vt 0.3909 0.4916
vt 0.5048 0.5287
vt 0.7402 0.4629
vt 0.2669 0.4592
vt 0.7664 0.4715
vt 0.2399 0.4672
vt 0.8370 0.3684
vt 0.7603 0.3199
vt 0.1696 0.3612
vt 0.2491 0.3131
vt 0.8067 0.3943
vt 0.2002 0.3883
vt 0.8331 0.4432
vt 0.8687 0.4512
vt 0.1355 0.4456
vt 0.1721 0.4381
vt 0.7924 0.4604
vt 0.7867 0.4658
vt 0.7845 0.4630
vt 0.7902 0.4599
vt 0.2232 0.4584
vt 0.2213 0.4613
vt 0.2156 0.4561
vt 0.2177 0.4555
vt 0.7939 0.4566
vt 0.7951 0.4567
vt 0.2139 0.4523
vt 0.2127 0.4525
vt 0.7948 0.4546
vt 0.7956 0.4550
vt 0.2129 0.4503
vt 0.2121 0.4507
vt 0.7956 0.4518
vt 0.7965 0.4527
vt 0.2119 0.4474
vt 0.2110 0.4483
vt 0.7965 0.4453
vt 0.7988 0.4454
vt 0.2106 0.4408
vt 0.2082 0.4409
vt 0.7946 0.4309
vt 0.7990 0.4263
vt 0.2123 0.4259
vt 0.2077 0.4211
vt 0.7947 0.4473
vt 0.7929 0.4367
vt 0.2141 0.4319
vt 0.2125 0.4429
vt 0.7948 0.4518
vt 0.2127 0.4474
vt 0.7944 0.4540
vt 0.2132 0.4496
vt 0.7933 0.4554
vt 0.2144 0.4510
vt 0.7897 0.4568
vt 0.2180 0.4524
vt 0.7847 0.4576
vt 0.2229 0.4531
vt 0.7824 0.4212
vt 0.7664 0.4136
vt 0.2248 0.4161
vt 0.2413 0.4087
vt 0.7722 0.4615
vt 0.2349 0.4571
vt 0.7873 0.4367
vt 0.2198 0.4319
vt 0.7855 0.4387
vt 0.7772 0.4284
vt 0.2301 0.4236
vt 0.2217 0.4340
vt 0.7791 0.4398
vt 0.7830 0.4406
vt 0.2282 0.4352
vt 0.2243 0.4359
vt 0.7777 0.4478
vt 0.7684 0.4489
vt 0.2387 0.4444
vt 0.2296 0.4433
vt 0.7794 0.4546
vt 0.2279 0.4501
vt 0.7827 0.4524
vt 0.7864 0.4553
vt 0.2247 0.4479
vt 0.2211 0.4508
vt 0.7815 0.4477
vt 0.2258 0.4432
vt 0.7811 0.4423
vt 0.2261 0.4377
vt 0.7841 0.4427
vt 0.2231 0.4381
vt 0.7873 0.4405
vt 0.2199 0.4358
vt 0.7875 0.4387
vt 0.2196 0.4340
vt 0.7912 0.4389
vt 0.2158 0.4342
vt 0.7905 0.4555
vt 0.2171 0.4511
vt 0.7932 0.4547
vt 0.2145 0.4503
vt 0.7937 0.4536
vt 0.2139 0.4492
vt 0.7941 0.4520
vt 0.2134 0.4476
vt 0.7937 0.4486
vt 0.2136 0.4441
vt 0.7893 0.4455
vt 0.7859 0.4461
vt 0.2180 0.4410
vt 0.2214 0.4415
vt 0.7899 0.4496
vt 0.7874 0.4503
vt 0.2175 0.4451
vt 0.2200 0.4458
vt 0.7904 0.4519
vt 0.7891 0.4531
vt 0.2171 0.4475
vt 0.2184 0.4486
vt 0.7915 0.4528
vt 0.7910 0.4539
vt 0.2160 0.4484
vt 0.2165 0.4495
vt 0.8150 0.4362
vt 0.8016 0.4506
vt 0.1908 0.4313
vt 0.2057 0.4462
vt 0.7974 0.4539
vt 0.2102 0.4495
vt 0.7964 0.4551
vt 0.2113 0.4508
vt 0.7962 0.4564
vt 0.2116 0.4521
vt 0.7975 0.4595
vt 0.2107 0.4553
vt 0.8018 0.4739
vt 0.2082 0.4696
vn -0.6650 0.2008 0.7194
vn 0.6650 0.2008 0.7194
vn -0.8294 0.3036 0.4689
vn 0.8294 0.3036 0.4689
vn -0.4155 0.7933 0.4449
vn 0.4155 0.7933 0.4449
vn -0.3600 0.5089 0.7820
vn 0.3600 0.5089 0.7820
vn 0.0787 0.5394 0.8384
vn -0.0787 0.5394 0.8384
vn 0.2696 0.8413 0.4685
vn -0.2696 0.8413 0.4685
vn 0.7707 0.3352 0.5420
vn -0.7707 0.3352 0.5420
vn 0.4689 0.1940 0.8617
vn -0.4689 0.1940 0.8617
vn 0.4767 -0.1907 0.8581
vn -0.4767 -0.1907 0.8581
vn 0.7672 -0.3264 0.5521
vn -0.7672 -0.3264 0.5521
vn 0.2519 -0.8173 0.5182
vn -0.2519 -0.8173 0.5182
vn 0.0949 -0.5696 0.8164
vn -0.0949 -0.5696 0.8164
vn -0.3667 -0.5370 0.7597
vn 0.3667 -0.5370 0.7597
vn -0.4141 -0.7672 0.4898
vn 0.4141 -0.7672 0.4898
vn -0.8277 -0.2952 0.4771
vn 0.8277 -0.2952 0.4771
vn -0.6713 -0.1971 0.7145
vn 0.6713 -0.1971 0.7145
vn -0.8111 -0.3244 -0.4867
vn 0.8111 -0.3244 -0.4867
vn -0.2052 -0.8206 -0.5334
vn 0.2052 -0.8206 -0.5334
vn 0.4223 -0.7806 -0.4607
vn -0.4223 -0.7806 -0.4607
vn 0.8241 -0.3225 -0.4658
vn -0.8241 -0.3225 -0.4658
vn 0.8137 0.3487 -0.4650
vn -0.8137 0.3487 -0.4650
vn 0.4223 0.7806 -0.4607
vn -0.4223 0.7806 -0.4607
vn -0.2052 0.8206 -0.5334
vn 0.2052 0.8206 -0.5334
vn -0.7995 0.3510 -0.4875
vn 0.7995 0.3510 -0.4875
vn -0.4000 0.0623 0.9144
vn 0.4000 0.0623 0.9144
vn -0.3069 0.1754 0.9354
vn 0.3069 0.1754 0.9354
vn -0.0945 0.1835 0.9785
vn 0.0945 0.1835 0.9785
vn 0.0624 0.0283 0.9977
vn -0.0624 0.0283 0.9977
vn 0.0624 -0.0260 0.9977
vn -0.0624 -0.0260 0.9977
vn -0.0996 -0.1729 0.9799
vn 0.0996 -0.1729 0.9799
vn -0.3036 -0.1656 0.9383
vn 0.3036 -0.1656 0.9383
vn -0.4002 -0.0572 0.9147
vn 0.4002 -0.0572 0.9147
vn -0.1231 0.8616 0.4924
vn 0.1231 0.8616 0.4924
vn -0.2190 0.8647 0.4520
vn 0.2190 0.8647 0.4520
vn -0.5902 0.4550 0.6668
vn 0.5902 0.4550 0.6668
vn -0.7689 0.0506 0.6374
vn 0.7689 0.0506 0.6374
vn -0.7796 -0.0900 0.6197
vn 0.7796 -0.0900 0.6197
vn -0.3241 0.8188 0.4739
vn 0.3241 0.8188 0.4739
vn -0.3857 0.6629 0.6417
vn 0.3857 0.6629 0.6417
vn -0.6895 0.4193 0.5906
vn 0.6895 0.4193 0.5906
vn -0.6588 0.3634 0.6588
vn 0.6588 0.3634 0.6588
vn -0.5465 -0.3707 0.7509
vn 0.5465 -0.3707 0.7509
vn -0.5064 -0.6464 0.5706
vn 0.5064 -0.6464 0.5706
vn -0.6092 -0.5167 0.6015
vn 0.6092 -0.5167 0.6015
vn 0.0441 -0.6610 0.7491
vn -0.0441 -0.6610 0.7491
vn 0.7246 -0.3187 0.6110
vn -0.7246 -0.3187 0.6110
vn 0.5880 -0.5554 0.5880
vn -0.5880 -0.5554 0.5880
vn -0.5361 0.3909 0.7482
vn 0.5361 0.3909 0.7482
vn -0.2207 0.4690 0.8552
vn 0.2207 0.4690 0.8552
vn 0.0794 0.5321 0.8429
vn -0.0794 0.5321 0.8429
vn 0.0825 0.6575 0.7490
vn -0.0825 0.6575 0.7490
vn -0.0457 0.5667 0.8226
vn 0.0457 0.5667 0.8226
vn -0.2784 0.2130 0.9365
vn 0.2784 0.2130 0.9365
vn -0.3813 0.1824 0.9063
vn 0.3813 0.1824 0.9063
vn -0.3357 0.2878 0.8969
vn 0.3357 0.2878 0.8969
vn -0.3762 -0.0603 0.9246
vn 0.3762 -0.0603 0.9246
vn 0.1352 -0.2680 0.9539
vn -0.1352 -0.2680 0.9539
vn -0.3961 0.4321 0.8102
vn 0.3961 0.4321 0.8102
vn -0.1856 0.2474 0.9510
vn 0.1856 0.2474 0.9510
vn -0.0099 0.1948 0.9808
vn 0.0099 0.1948 0.9808
vn -0.0721 0.6966 0.7138
vn 0.0721 0.6966 0.7138
vn -0.1863 0.5723 0.7986
vn 0.1863 0.5723 0.7986
vn -0.3157 0.2708 0.9094
vn 0.3157 0.2708 0.9094
vn -0.3063 0.0265 0.9516
vn 0.3063 0.0265 0.9516
vn -0.3266 0.1306 0.9361
vn 0.3266 0.1306 0.9361
vn 0.0137 -0.0574 0.9983
vn -0.0137 -0.0574 0.9983
vn 0.0026 0.0656 0.9978
vn -0.0026 0.0656 0.9978
vn 0.0000 0.0000 1.0000
vn -0.8174 0.5744 -0.0442
vn 0.8174 0.5744 -0.0442
vn -0.9494 -0.2297 -0.2144
vn 0.9494 -0.2297 -0.2144
vn -0.0825 -0.9073 -0.4124
vn 0.0825 -0.9073 -0.4124
vn 0.8836 -0.3555 0.3047
vn -0.8836 -0.3555 0.3047
vn -0.4207 0.8797 0.2218
vn 0.4207 0.8797 0.2218
vn -0.2873 0.5747 0.7663
vn 0.2873 0.5747 0.7663
vn 0.6542 -0.6019 0.4580
vn -0.6542 -0.6019 0.4580
vn -0.1052 -0.7892 0.6051
vn 0.1052 -0.7892 0.6051
vn -0.7582 -0.2916 0.5832
vn 0.7582 -0.2916 0.5832
vn -0.3889 0.7130 0.5834
vn 0.3889 0.7130 0.5834
vn -0.0463 -0.2314 0.9718
vn 0.0463 -0.2314 0.9718
vn -0.0335 0.4018 0.9151
vn 0.0335 0.4018 0.9151
vn 0.4452 0.1610 0.8809
vn -0.4452 0.1610 0.8809
vn 0.2182 0.4364 0.8729
vn -0.2182 0.4364 0.8729
vn -0.4341 0.1290 0.8916
vn 0.4341 0.1290 0.8916
vn -0.3008 -0.0501 0.9524
vn 0.3008 -0.0501 0.9524
vn -0.8123 -0.3010 0.4996
vn 0.8123 -0.3010 0.4996
vn -0.8753 -0.2574 0.4093
vn 0.8753 -0.2574 0.4093
vn -0.9385 -0.1601 0.3060
vn 0.9385 -0.1601 0.3060
vn -0.2237 0.6539 0.7227
vn 0.2237 0.6539 0.7227
vn 0.1536 0.1997 0.9677
vn -0.1536 0.1997 0.9677
vn 0.2733 0.1025 0.9565
vn -0.2733 0.1025 0.9565
vn 0.0976 -0.1952 0.9759
vn -0.0976 -0.1952 0.9759
vn 0.1582 -0.9494 0.2713
vn -0.1582 -0.9494 0.2713
vn 0.6934 -0.7082 0.1328
vn -0.6934 -0.7082 0.1328
vn 1.0000 -0.0000 -0.0000
vn -1.0000 0.0000 0.0000
vn -0.3051 0.9450 0.1181
vn 0.3051 0.9450 0.1181
vn -0.0298 0.2981 0.9541
vn 0.0298 0.2981 0.9541
vn -0.1353 0.3479 0.9277
vn 0.1353 0.3479 0.9277
vn 0.5085 0.2755 0.8158
vn -0.5085 0.2755 0.8158
vn 0.3843 0.0419 0.9223
vn -0.3843 0.0419 0.9223
vn 0.2083 -0.0374 0.9774
vn -0.2083 -0.0374 0.9774
vn 0.5721 0.4767 0.6674
vn -0.5721 0.4767 0.6674
vn 0.1369 0.7531 0.6435
vn -0.1369 0.7531 0.6435
vn -0.4088 0.6071 0.6814
vn 0.4088 0.6071 0.6814
vn -0.5740 0.4130 0.7070
vn 0.5740 0.4130 0.7070
vn -0.5665 0.0968 0.8183
vn 0.5665 0.0968 0.8183
vn -0.5703 -0.1180 0.8129
vn 0.5703 -0.1180 0.8129
vn -0.4823 -0.5621 0.6719
vn 0.4823 -0.5621 0.6719
vn -0.2604 -0.6114 0.7473
vn 0.2604 -0.6114 0.7473
vn -0.1640 -0.3607 0.9182
vn 0.1640 -0.3607 0.9182
vn 0.0178 -0.2495 0.9682
vn -0.0178 -0.2495 0.9682
vn -0.3273 0.4166 0.8481
vn 0.3273 0.4166 0.8481
vn -0.2811 0.2610 0.9235
vn 0.2811 0.2610 0.9235
vn 0.2542 0.6514 0.7149
vn -0.2542 0.6514 0.7149
vn 0.0260 0.8455 0.5333
vn -0.0260 0.8455 0.5333
vn 0.3518 0.2606 0.8991
vn -0.3518 0.2606 0.8991
vn 0.3523 0.0110 0.9358
vn -0.3523 0.0110 0.9358
vn 0.1317 -0.4608 0.8777
vn -0.1317 -0.4608 0.8777
vn 0.0342 -0.6159 0.7870
vn -0.0342 -0.6159 0.7870
vn -0.3603 -0.5836 0.7277
vn 0.3603 -0.5836 0.7277
vn -0.4988 -0.5300 0.6858
vn 0.4988 -0.5300 0.6858
vn -0.6667 0.3333 0.6667
vn 0.6667 0.3333 0.6667
vn -0.8165 0.0731 0.5727
vn 0.8165 0.0731 0.5727
vn -0.7840 -0.1161 0.6098
vn 0.7840 -0.1161 0.6098
vn 0.5306 -0.8111 -0.2461
vn -0.5306 -0.8111 -0.2461
vn 0.8511 -0.3695 -0.3730
vn -0.8511 -0.3695 -0.3730
vn 0.2446 -0.8675 -0.4331
vn -0.2446 -0.8675 -0.4331
vn -0.5924 -0.7465 -0.3030
vn 0.5924 -0.7465 -0.3030
vn -0.3685 -0.8758 -0.3118
vn 0.3685 -0.8758 -0.3118
vn -0.2821 -0.9151 -0.2880
vn 0.2821 -0.9151 -0.2880
vn -0.8561 -0.1340 -0.4991
vn 0.8561 -0.1340 -0.4991
vn -0.5342 0.7233 -0.4376
vn 0.5342 0.7233 -0.4376
vn -0.3849 0.8131 -0.4368
vn 0.3849 0.8131 -0.4368
vn -0.2335 0.5806 -0.7800
vn 0.2335 0.5806 -0.7800
vn -0.2449 0.0583 -0.9678
vn 0.2449 0.0583 -0.9678
vn -0.1163 0.4535 -0.8837
vn 0.1163 0.4535 -0.8837
vn -0.1152 0.9836 -0.1388
vn 0.1152 0.9836 -0.1388
vn -0.1184 0.9669 -0.2260
vn 0.1184 0.9669 -0.2260
vn -0.9597 0.0085 -0.2808
vn 0.9597 0.0085 -0.2808
vn -0.9319 -0.1629 -0.3242
vn 0.9319 -0.1629 -0.3242
vn -0.1626 -0.0207 -0.9865
vn 0.1626 -0.0207 -0.9865
vn 0.0188 0.2177 -0.9758
vn -0.0188 0.2177 -0.9758
vn -0.7538 0.2926 -0.5884
vn 0.7538 0.2926 -0.5884
vn -0.9196 -0.1379 -0.3678
vn 0.9196 -0.1379 -0.3678
vn -0.9297 -0.3127 -0.1944
vn 0.9297 -0.3127 -0.1944
vn -0.9120 -0.3376 -0.2329
vn 0.9120 -0.3376 -0.2329
vn -0.9407 -0.3338 -0.0607
vn 0.9407 -0.3338 -0.0607
vn -0.1761 0.8805 -0.4402
vn 0.1761 0.8805 -0.4402
vn -0.3708 0.4733 -0.7991
vn 0.3708 0.4733 -0.7991
vn -0.3107 0.8284 -0.4660
vn 0.3107 0.8284 -0.4660
vn -0.2793 0.9515 -0.1287
vn 0.2793 0.9515 -0.1287
vn -0.3139 0.9321 -0.1807
vn 0.3139 0.9321 -0.1807
vn -0.9762 0.2083 -0.0609
vn 0.9762 0.2083 -0.0609
vn -0.8267 0.5066 0.2447
vn 0.8267 0.5066 0.2447
vn -0.3449 0.1158 -0.9315
vn 0.3449 0.1158 -0.9315
vn -0.1203 -0.9644 0.2355
vn 0.1203 -0.9644 0.2355
vn -0.1275 -0.9744 -0.1851
vn 0.1275 -0.9744 -0.1851
vn -0.3492 -0.5947 -0.7241
vn 0.3492 -0.5947 -0.7241
vn -0.4153 -0.8981 -0.1449
vn 0.4153 -0.8981 -0.1449
vn -0.1845 -0.7036 0.6863
vn 0.1845 -0.7036 0.6863
vn -0.6056 -0.7794 0.1608
vn 0.6056 -0.7794 0.1608
vn -0.7033 -0.6806 -0.2053
vn 0.7033 -0.6806 -0.2053
vn -0.6679 -0.2007 -0.7166
vn 0.6679 -0.2007 -0.7166
vn -0.4948 -0.4342 -0.7528
vn 0.4948 -0.4342 -0.7528
vn -0.6423 -0.7459 -0.1761
vn 0.6423 -0.7459 -0.1761
vn -0.7182 -0.6788 0.1530
vn 0.7182 -0.6788 0.1530
vn -0.7388 -0.3972 0.5444
vn 0.7388 -0.3972 0.5444
vn -0.3428 -0.9261 -0.1579
vn 0.3428 -0.9261 -0.1579
vn -0.2270 -0.5740 0.7867
vn 0.2270 -0.5740 0.7867
vn 0.1722 -0.1046 -0.9795
vn -0.1722 -0.1046 -0.9795
vn -0.0425 -0.9150 0.4013
vn 0.0425 -0.9150 0.4013
vn 0.1616 -0.1847 0.9694
vn -0.1616 -0.1847 0.9694
vn -0.9791 -0.1973 0.0483
vn 0.9791 -0.1973 0.0483
vn -0.9470 -0.0918 0.3079
vn 0.9470 -0.0918 0.3079
vn -0.9794 -0.1905 -0.0661
vn 0.9794 -0.1905 -0.0661
vn -0.9938 -0.0312 -0.1070
vn 0.9938 -0.0312 -0.1070
vn -0.7116 0.7008 0.0501
vn 0.7116 0.7008 0.0501
vn -0.3722 0.9243 0.0847
vn 0.3722 0.9243 0.0847
vn -0.4465 0.8644 0.2310
vn 0.4465 0.8644 0.2310
vn -0.6066 0.7578 0.2405
vn 0.6066 0.7578 0.2405
vn -0.7325 0.6368 0.2407
vn 0.7325 0.6368 0.2407
vn -0.2637 0.4499 0.8533
vn 0.2637 0.4499 0.8533
vn -0.5568 0.3181 -0.7673
vn 0.5568 0.3181 -0.7673
vn -0.5004 0.2807 -0.8190
vn 0.5004 0.2807 -0.8190
vn -0.3190 0.8494 -0.4205
vn 0.3190 0.8494 -0.4205
vn -0.7198 0.6356 -0.2793
vn 0.7198 0.6356 -0.2793
vn -0.4972 0.4408 -0.7473
vn 0.4972 0.4408 -0.7473
vn -0.3506 -0.3807 0.8557
vn 0.3506 -0.3807 0.8557
vn -0.4566 -0.1715 0.8730
vn 0.4566 -0.1715 0.8730
vn -0.2583 -0.1055 0.9603
vn 0.2583 -0.1055 0.9603
vn -0.2455 0.0802 0.9661
vn 0.2455 0.0802 0.9661
vn -0.4643 0.0599 0.8837
vn 0.4643 0.0599 0.8837
vn -0.6225 0.3045 0.7210
vn 0.6225 0.3045 0.7210
vn -0.4500 -0.6590 0.6027
vn 0.4500 -0.6590 0.6027
vn 0.2667 -0.8309 0.4884
vn -0.2667 -0.8309 0.4884
vn 0.8284 -0.2291 0.5111
vn -0.8284 -0.2291 0.5111
vn 0.5251 0.3566 0.7727
vn -0.5251 0.3566 0.7727
vn -0.4546 0.5665 0.6873
vn 0.4546 0.5665 0.6873
vn -0.6996 0.4497 0.5552
vn 0.6996 0.4497 0.5552
vn -0.7220 0.6827 -0.1126
vn 0.7220 0.6827 -0.1126
vn 0.1919 -0.2860 0.9388
vn -0.1919 -0.2860 0.9388
vn -0.9048 0.3734 -0.2047
vn 0.9048 0.3734 -0.2047
vn -0.1034 -0.1551 0.9825
vn 0.1034 -0.1551 0.9825
vn -0.0841 -0.9318 0.3530
vn 0.0841 -0.9318 0.3530
vn -0.6446 0.0883 0.7594
vn 0.6446 0.0883 0.7594
vn -0.4309 -0.4740 0.7678
vn 0.4309 -0.4740 0.7678
vn -0.8032 0.4847 0.3462
vn 0.8032 0.4847 0.3462
vn -0.5811 0.4128 0.7014
vn 0.5811 0.4128 0.7014
vn -0.5910 0.4305 0.6822
vn 0.5910 0.4305 0.6822
vn -0.9818 0.1804 -0.0591
vn 0.9818 0.1804 -0.0591
vn -0.9105 0.3965 -0.1175
vn 0.9105 0.3965 -0.1175
vn -0.9972 0.0181 -0.0725
vn 0.9972 0.0181 -0.0725
vn -0.7313 0.6543 0.1925
vn 0.7313 0.6543 0.1925
vn -0.7867 0.6079 0.1073
vn 0.7867 0.6079 0.1073
vn -0.7022 0.7022 0.1170
vn 0.7022 0.7022 0.1170
vn -0.1840 -0.9816 -0.0511
vn 0.1840 -0.9816 -0.0511
vn -0.9352 -0.3301 0.1284
vn 0.9352 -0.3301 0.1284
vn -0.6633 0.7463 0.0553
vn 0.6633 0.7463 0.0553
vn 0.0085 -0.9970 0.0767
vn -0.0085 -0.9970 0.0767
vn -0.6237 0.7061 0.3354
vn 0.6237 0.7061 0.3354
vn -0.2733 0.8925 0.3587
vn 0.2733 0.8925 0.3587
vn 0.8328 0.5080 -0.2200
vn -0.8328 0.5080 -0.2200
vn 0.8339 -0.2377 -0.4981
vn -0.8339 -0.2377 -0.4981
vn 0.5655 -0.7847 -0.2539
vn -0.5655 -0.7847 -0.2539
vn 0.0560 -0.9962 0.0672
vn -0.0560 -0.9962 0.0672
vn -0.1445 -0.0222 0.9893
vn 0.1445 -0.0222 0.9893
vn -0.3275 -0.0645 0.9427
vn 0.3275 -0.0645 0.9427
vn -0.3127 -0.0232 0.9496
vn 0.3127 -0.0232 0.9496
vn -0.1710 -0.0274 0.9849
vn 0.1710 -0.0274 0.9849
vn -0.3487 -0.2849 0.8929
vn 0.3487 -0.2849 0.8929
vn -0.4006 0.0343 0.9156
vn 0.4006 0.0343 0.9156
vn -0.2572 0.0603 0.9645
vn 0.2572 0.0603 0.9645
vn -0.0637 0.0106 0.9979
vn 0.0637 0.0106 0.9979
vn 0.3637 -0.7039 0.6101
vn -0.3637 -0.7039 0.6101
vn -0.6299 -0.0355 0.7759
vn 0.6299 -0.0355 0.7759
vn -0.4472 0.2002 0.8717
vn 0.4472 0.2002 0.8717
vn -0.5072 0.2141 0.8348
vn 0.5072 0.2141 0.8348
vn -0.5258 -0.2619 0.8093
vn 0.5258 -0.2619 0.8093
vn -0.2980 -0.5802 0.7580
vn 0.2980 -0.5802 0.7580
vn -0.0930 0.9924 -0.0805
vn 0.0930 0.9924 -0.0805
vn -0.5006 0.8657 0.0080
vn 0.5006 0.8657 0.0080
vn -0.9285 0.2497 0.2748
vn 0.9285 0.2497 0.2748
vn -0.8393 -0.5424 -0.0378
vn 0.8393 -0.5424 -0.0378
vn 0.2355 -0.9367 -0.2589
vn -0.2355 -0.9367 -0.2589
vn 0.4499 -0.8838 -0.1285
vn -0.4499 -0.8838 -0.1285
vn 0.5384 0.0098 -0.8427
vn -0.5384 0.0098 -0.8427
vn 0.1910 0.0241 -0.9813
vn -0.1910 0.0241 -0.9813
vn -0.4046 -0.0266 -0.9141
vn 0.4046 -0.0266 -0.9141
vn 0.7819 -0.6231 0.0197
vn -0.7819 -0.6231 0.0197
vn -0.5428 0.2063 -0.8142
vn 0.5428 0.2063 -0.8142
vn 0.2474 0.9231 -0.2945
vn -0.2474 0.9231 -0.2945
usemtl Magd150
s off
f 47/1/1 1/2/1 3/3/1 45/4/1
f 4/5/2 2/6/2 48/7/2 46/8/2
f 45/4/3 3/3/3 5/9/3 43/10/3
f 6/11/4 4/5/4 46/8/4 44/12/4
f 3/3/5 9/13/5 7/14/5 5/9/5
f 8/15/6 10/16/6 4/5/6 6/11/6
f 1/2/7 11/17/7 9/13/7 3/3/7
f 10/16/8 12/18/8 2/6/8 4/5/8
f 11/17/9 13/19/9 15/20/9 9/13/9
f 16/21/10 14/22/10 12/18/10 10/16/10
f 9/13/11 15/20/11 17/23/11 7/14/11
f 18/24/12 16/21/12 10/16/12 8/15/12
f 15/20/13 21/25/13 19/26/13 17/23/13
f 20/27/14 22/28/14 16/21/14 18/24/14
f 13/19/15 23/29/15 21/25/15 15/20/15
f 22/28/16 24/30/16 14/22/16 16/21/16
f 23/29/17 25/31/17 27/32/17 21/25/17
f 28/33/18 26/34/18 24/30/18 22/28/18
f 21/25/19 27/32/19 29/35/19 19/26/19
f 30/36/20 28/33/20 22/28/20 20/27/20
f 27/32/21 33/37/21 31/38/21 29/35/21
f 32/39/22 34/40/22 28/33/22 30/36/22
f 25/31/23 35/41/23 33/37/23 27/32/23
f 34/40/24 36/42/24 26/34/24 28/33/24
f 35/41/25 37/43/25 39/44/25 33/37/25
f 40/45/26 38/46/26 36/42/26 34/40/26
f 33/37/27 39/44/27 41/47/27 31/38/27
f 42/48/28 40/45/28 34/40/28 32/39/28
f 39/44/29 45/4/29 43/10/29 41/47/29
f 44/12/30 46/8/30 40/45/30 42/48/30
f 37/43/31 47/1/31 45/4/31 39/44/31
f 46/8/32 48/7/32 38/46/32 40/45/32
f 47/1/33 37/43/33 51/49/33 49/50/33
f 52/51/34 38/46/34 48/7/34 50/52/34
f 37/43/35 35/41/35 53/53/35 51/49/35
f 54/54/36 36/42/36 38/46/36 52/51/36
f 35/41/37 25/31/37 55/55/37 53/53/37
f 56/56/38 26/34/38 36/42/38 54/54/38
f 25/31/39 23/29/39 57/57/39 55/55/39
f 58/58/40 24/30/40 26/34/40 56/56/40
f 23/29/41 13/19/41 59/59/41 57/57/41
f 60/60/42 14/22/42 24/30/42 58/58/42
f 13/19/43 11/17/43 63/61/43 59/59/43
f 64/62/44 12/18/44 14/22/44 60/60/44
f 11/17/45 1/2/45 65/63/45 63/61/45
f 66/64/46 2/6/46 12/18/46 64/62/46
f 1/2/47 47/1/47 49/50/47 65/63/47
f 50/52/48 48/7/48 2/6/48 66/64/48
f 61/65/49 65/63/49 49/50/49
f 50/52/50 66/64/50 62/66/50
f 63/61/51 65/63/51 61/65/51
f 62/66/52 66/64/52 64/62/52
f 61/65/53 59/59/53 63/61/53
f 64/62/54 60/60/54 62/66/54
f 61/65/55 57/57/55 59/59/55
f 60/60/56 58/58/56 62/66/56
f 61/65/57 55/55/57 57/57/57
f 58/58/58 56/56/58 62/66/58
f 61/65/59 53/53/59 55/55/59
f 56/56/60 54/54/60 62/66/60
f 61/65/61 51/49/61 53/53/61
f 54/54/62 52/51/62 62/66/62
f 61/65/63 49/50/63 51/49/63
f 52/51/64 50/52/64 62/66/64
f 89/67/65 174/68/65 176/69/65 91/70/65
f 176/71/66 175/72/66 90/73/66 91/74/66
f 87/75/67 172/76/67 174/68/67 89/67/67
f 175/72/68 173/77/68 88/78/68 90/73/68
f 85/79/69 170/80/69 172/76/69 87/75/69
f 173/77/70 171/81/70 86/82/70 88/78/70
f 83/83/71 168/84/71 170/80/71 85/79/71
f 171/81/72 169/85/72 84/86/72 86/82/72
f 81/87/73 166/88/73 168/84/73 83/83/73
f 169/85/74 167/89/74 82/90/74 84/86/74
f 79/91/75 92/92/75 146/93/75 164/94/75
f 147/95/76 93/96/76 80/97/76 165/98/76
f 92/92/77 94/99/77 148/100/77 146/93/77
f 149/101/78 95/102/78 93/96/78 147/95/78
f 94/99/79 96/103/79 150/104/79 148/100/79
f 151/105/80 97/106/80 95/102/80 149/101/80
f 96/103/81 98/107/81 152/108/81 150/104/81
f 153/109/82 99/110/82 97/106/82 151/105/82
f 98/107/83 100/111/83 154/112/83 152/108/83
f 155/113/84 101/114/84 99/110/84 153/109/84
f 100/111/85 102/115/85 156/116/85 154/112/85
f 157/117/86 103/118/86 101/114/86 155/113/86
f 102/115/87 104/119/87 158/120/87 156/116/87
f 159/121/88 105/122/88 103/118/88 157/117/88
f 104/119/89 106/123/89 160/124/89 158/120/89
f 161/125/90 107/126/90 105/122/90 159/121/90
f 106/123/91 108/127/91 162/128/91 160/124/91
f 163/129/92 109/130/92 107/126/92 161/125/92
f 108/127/93 67/131/93 68/132/93 162/128/93
f 68/132/94 67/131/94 109/130/94 163/129/94
f 110/133/95 128/134/95 160/124/95 162/128/95
f 161/125/96 129/135/96 111/136/96 163/129/96
f 128/134/97 179/137/97 158/120/97 160/124/97
f 159/121/98 180/138/98 129/135/98 161/125/98
f 126/139/99 156/116/99 158/120/99 179/137/99
f 159/121/100 157/117/100 127/140/100 180/138/100
f 124/141/101 154/112/101 156/116/101 126/139/101
f 157/117/102 155/113/102 125/142/102 127/140/102
f 122/143/103 152/108/103 154/112/103 124/141/103
f 155/113/104 153/109/104 123/144/104 125/142/104
f 120/145/105 150/104/105 152/108/105 122/143/105
f 153/109/106 151/105/106 121/146/106 123/144/106
f 118/147/107 148/100/107 150/104/107 120/145/107
f 151/105/108 149/101/108 119/148/108 121/146/108
f 116/149/109 146/93/109 148/100/109 118/147/109
f 149/101/110 147/95/110 117/150/110 119/148/110
f 114/151/111 164/94/111 146/93/111 116/149/111
f 147/95/112 165/98/112 115/152/112 117/150/112
f 114/151/113 181/153/113 177/154/113 164/94/113
f 177/154/114 182/155/114 115/152/114 165/98/114
f 110/133/115 162/128/115 68/132/115 112/156/115
f 68/132/116 163/129/116 111/136/116 113/157/116
f 112/156/117 68/132/117 178/158/117 183/159/117
f 178/158/118 68/132/118 113/157/118 184/160/118
f 177/154/119 181/153/119 183/159/119 178/158/119
f 184/160/120 182/155/120 177/154/120 178/158/120
f 135/161/121 137/162/121 176/69/121 174/68/121
f 176/71/122 137/163/122 136/164/122 175/72/122
f 133/165/123 135/161/123 174/68/123 172/76/123
f 175/72/124 136/164/124 134/166/124 173/77/124
f 131/167/125 133/165/125 172/76/125 170/80/125
f 173/77/126 134/166/126 132/168/126 171/81/126
f 166/88/127 187/169/127 185/170/127 168/84/127
f 186/171/128 188/172/128 167/89/128 169/85/128
f 131/167/129 170/80/129 168/84/129 185/170/129
f 169/85/130 171/81/130 132/168/130 186/171/130
f 144/173/131 190/174/131 189/175/131 187/169/131
f 189/176/132 190/177/132 145/178/132 188/172/132
f 185/170/133 187/169/133 189/175/133 69/179/133
f 189/176/134 188/172/134 186/171/134 69/180/134
f 130/181/135 131/167/135 185/170/135 69/179/135
f 186/171/135 132/168/135 130/182/135 69/180/135
f 142/183/136 193/184/136 191/185/136 144/173/136
f 192/186/137 194/187/137 143/188/137 145/178/137
f 140/189/138 195/190/138 193/184/138 142/183/138
f 194/187/139 196/191/139 141/192/139 143/188/139
f 139/193/140 197/194/140 195/190/140 140/189/140
f 196/191/141 198/195/141 139/193/141 141/192/141
f 138/196/142 71/197/142 197/194/142 139/193/142
f 198/195/143 71/197/143 138/196/143 139/193/143
f 190/174/144 144/173/144 191/185/144 70/198/144
f 192/186/145 145/178/145 190/177/145 70/199/145
f 70/198/146 191/185/146 206/200/146 208/201/146
f 207/202/147 192/186/147 70/199/147 208/203/147
f 71/197/148 199/204/148 200/205/148 197/194/148
f 201/206/149 199/204/149 71/197/149 198/195/149
f 197/194/150 200/205/150 202/207/150 195/190/150
f 203/208/151 201/206/151 198/195/151 196/191/151
f 195/190/152 202/207/152 204/209/152 193/184/152
f 205/210/153 203/208/153 196/191/153 194/187/153
f 193/184/154 204/209/154 206/200/154 191/185/154
f 207/202/155 205/210/155 194/187/155 192/186/155
f 199/204/156 204/209/156 202/207/156 200/205/156
f 203/208/157 205/210/157 199/204/157 201/206/157
f 199/204/158 208/201/158 206/200/158 204/209/158
f 207/202/159 208/203/159 199/204/159 205/210/159
f 139/193/160 140/189/160 164/94/160 177/154/160
f 165/98/161 141/192/161 139/193/161 177/154/161
f 140/189/162 142/183/162 211/211/162 164/94/162
f 212/212/163 143/188/163 141/192/163 165/98/163
f 142/183/164 144/173/164 213/213/164 211/211/164
f 214/214/165 145/178/165 143/188/165 212/212/165
f 144/173/166 187/169/166 166/88/166 213/213/166
f 167/89/167 188/172/167 145/178/167 214/214/167
f 81/87/168 209/215/168 213/213/168 166/88/168
f 214/214/169 210/216/169 82/90/169 167/89/169
f 209/215/170 215/217/170 211/211/170 213/213/170
f 212/212/171 216/218/171 210/216/171 214/214/171
f 79/91/172 164/94/172 211/211/172 215/217/172
f 212/212/173 165/98/173 80/97/173 216/218/173
f 131/167/174 130/181/174 72/219/174 222/220/174
f 72/221/175 130/182/175 132/168/175 223/222/175
f 133/165/176 131/167/176 222/220/176 220/223/176
f 223/222/177 132/168/177 134/166/177 221/224/177
f 135/161/178 133/165/178 220/223/178 218/225/178
f 221/224/179 134/166/179 136/164/179 219/226/179
f 137/162/180 135/161/180 218/225/180 217/227/180
f 219/226/181 136/164/181 137/163/181 217/228/181
f 217/227/182 218/225/182 229/229/182 231/230/182
f 230/231/183 219/226/183 217/228/183 231/232/183
f 218/225/184 220/223/184 227/233/184 229/229/184
f 228/234/185 221/224/185 219/226/185 230/231/185
f 220/223/186 222/220/186 225/235/186 227/233/186
f 226/236/187 223/222/187 221/224/187 228/234/187
f 222/220/188 72/219/188 224/237/188 225/235/188
f 224/238/189 72/221/189 223/222/189 226/236/189
f 224/237/190 231/230/190 229/229/190 225/235/190
f 230/231/191 231/232/191 224/238/191 226/236/191
f 225/235/192 229/229/192 227/233/192
f 228/234/193 230/231/193 226/236/193
f 183/159/194 181/153/194 234/239/194 232/240/194
f 235/241/195 182/155/195 184/160/195 233/242/195
f 112/156/196 183/159/196 232/240/196 254/243/196
f 233/242/197 184/160/197 113/157/197 255/244/197
f 110/133/198 112/156/198 254/243/198 256/245/198
f 255/244/199 113/157/199 111/136/199 257/246/199
f 181/153/200 114/151/200 252/247/200 234/239/200
f 253/248/201 115/152/201 182/155/201 235/241/201
f 114/151/202 116/149/202 250/249/202 252/247/202
f 251/250/203 117/150/203 115/152/203 253/248/203
f 116/149/204 118/147/204 248/251/204 250/249/204
f 249/252/205 119/148/205 117/150/205 251/250/205
f 118/147/206 120/145/206 246/253/206 248/251/206
f 247/254/207 121/146/207 119/148/207 249/252/207
f 120/145/208 122/143/208 244/255/208 246/253/208
f 245/256/209 123/144/209 121/146/209 247/254/209
f 122/143/210 124/141/210 242/257/210 244/255/210
f 243/258/211 125/142/211 123/144/211 245/256/211
f 124/141/212 126/139/212 240/259/212 242/257/212
f 241/260/213 127/140/213 125/142/213 243/258/213
f 126/139/214 179/137/214 236/261/214 240/259/214
f 237/262/215 180/138/215 127/140/215 241/260/215
f 179/137/216 128/134/216 238/263/216 236/261/216
f 239/264/217 129/135/217 180/138/217 237/262/217
f 128/134/218 110/133/218 256/245/218 238/263/218
f 257/246/219 111/136/219 129/135/219 239/264/219
f 238/263/220 256/245/220 258/265/220 276/266/220
f 259/267/221 257/246/221 239/264/221 277/268/221
f 236/261/222 238/263/222 276/266/222 278/269/222
f 277/268/223 239/264/223 237/262/223 279/270/223
f 240/259/224 236/261/224 278/269/224 274/271/224
f 279/270/225 237/262/225 241/260/225 275/272/225
f 242/257/226 240/259/226 274/271/226 272/273/226
f 275/272/227 241/260/227 243/258/227 273/274/227
f 244/255/228 242/257/228 272/273/228 270/275/228
f 273/274/229 243/258/229 245/256/229 271/276/229
f 246/253/230 244/255/230 270/275/230 268/277/230
f 271/276/231 245/256/231 247/254/231 269/278/231
f 248/251/232 246/253/232 268/277/232 266/279/232
f 269/278/233 247/254/233 249/252/233 267/280/233
f 250/249/234 248/251/234 266/279/234 264/281/234
f 267/280/235 249/252/235 251/250/235 265/282/235
f 252/247/236 250/249/236 264/281/236 262/283/236
f 265/282/237 251/250/237 253/248/237 263/284/237
f 234/239/238 252/247/238 262/283/238 280/285/238
f 263/284/239 253/248/239 235/241/239 281/286/239
f 256/245/240 254/243/240 260/287/240 258/265/240
f 261/288/241 255/244/241 257/246/241 259/267/241
f 254/243/242 232/240/242 282/289/242 260/287/242
f 283/290/243 233/242/243 255/244/243 261/288/243
f 232/240/244 234/239/244 280/285/244 282/289/244
f 281/286/245 235/241/245 233/242/245 283/290/245
f 67/131/246 108/127/246 284/291/246 73/292/246
f 285/293/247 109/130/247 67/131/247 73/292/247
f 108/127/248 106/123/248 286/294/248 284/291/248
f 287/295/249 107/126/249 109/130/249 285/293/249
f 106/123/250 104/119/250 288/296/250 286/294/250
f 289/297/251 105/122/251 107/126/251 287/295/251
f 104/119/252 102/115/252 290/298/252 288/296/252
f 291/299/253 103/118/253 105/122/253 289/297/253
f 102/115/254 100/111/254 292/300/254 290/298/254
f 293/301/255 101/114/255 103/118/255 291/299/255
f 100/111/256 98/107/256 294/302/256 292/300/256
f 295/303/257 99/110/257 101/114/257 293/301/257
f 98/107/258 96/103/258 296/304/258 294/302/258
f 297/305/259 97/106/259 99/110/259 295/303/259
f 96/103/260 94/99/260 298/306/260 296/304/260
f 299/307/261 95/102/261 97/106/261 297/305/261
f 94/99/262 92/92/262 300/308/262 298/306/262
f 301/309/263 93/96/263 95/102/263 299/307/263
f 308/310/264 309/311/264 328/312/264 338/313/264
f 329/314/265 309/315/265 308/316/265 339/317/265
f 307/318/266 308/310/266 338/313/266 336/319/266
f 339/317/267 308/316/267 307/320/267 337/321/267
f 306/322/268 307/318/268 336/319/268 340/323/268
f 337/321/269 307/320/269 306/324/269 341/325/269
f 89/67/270 91/70/270 306/322/270 340/323/270
f 306/324/271 91/74/271 90/73/271 341/325/271
f 87/75/272 89/67/272 340/323/272 334/326/272
f 341/325/273 90/73/273 88/78/273 335/327/273
f 85/79/274 87/75/274 334/326/274 330/328/274
f 335/327/275 88/78/275 86/82/275 331/329/275
f 83/83/276 85/79/276 330/328/276 332/330/276
f 331/329/277 86/82/277 84/86/277 333/331/277
f 330/328/278 336/319/278 338/313/278 332/330/278
f 339/317/279 337/321/279 331/329/279 333/331/279
f 330/328/280 334/326/280 340/323/280 336/319/280
f 341/325/281 335/327/281 331/329/281 337/321/281
f 326/332/282 332/330/282 338/313/282 328/312/282
f 339/317/283 333/331/283 327/333/283 329/314/283
f 81/87/284 83/83/284 332/330/284 326/332/284
f 333/331/285 84/86/285 82/90/285 327/333/285
f 209/215/286 342/334/286 344/335/286 215/217/286
f 345/336/287 343/337/287 210/216/287 216/218/287
f 81/87/288 326/332/288 342/334/288 209/215/288
f 343/337/289 327/333/289 82/90/289 210/216/289
f 79/91/290 215/217/290 344/335/290 346/338/290
f 345/336/291 216/218/291 80/97/291 347/339/291
f 79/91/292 346/338/292 300/308/292 92/92/292
f 301/309/293 347/339/293 80/97/293 93/96/293
f 77/340/294 324/341/294 352/342/294 304/343/294
f 353/344/295 325/345/295 77/346/295 304/347/295
f 304/343/296 352/342/296 350/348/296 78/349/296
f 351/350/297 353/344/297 304/347/297 78/351/297
f 78/349/298 350/348/298 348/352/298 305/353/298
f 349/354/299 351/350/299 78/351/299 305/355/299
f 305/353/300 348/352/300 328/312/300 309/311/300
f 329/314/301 349/354/301 305/355/301 309/315/301
f 326/332/302 328/312/302 348/352/302 342/334/302
f 349/354/303 329/314/303 327/333/303 343/337/303
f 296/304/304 298/306/304 318/356/304 310/357/304
f 319/358/305 299/307/305 297/305/305 311/359/305
f 76/360/306 316/361/306 324/341/306 77/340/306
f 325/345/307 317/362/307 76/363/307 77/346/307
f 302/364/308 358/365/308 356/366/308 303/367/308
f 357/368/309 359/369/309 302/370/309 303/371/309
f 303/367/310 356/366/310 354/372/310 75/373/310
f 355/374/311 357/368/311 303/371/311 75/375/311
f 75/373/312 354/372/312 316/361/312 76/360/312
f 317/362/313 355/374/313 75/375/313 76/363/313
f 292/300/314 294/302/314 362/376/314 364/377/314
f 363/378/315 295/303/315 293/301/315 365/379/315
f 364/377/316 362/376/316 368/380/316 366/381/316
f 369/382/317 363/378/317 365/379/317 367/383/317
f 366/381/318 368/380/318 370/384/318 372/385/318
f 371/386/319 369/382/319 367/383/319 373/387/319
f 372/385/320 370/384/320 376/388/320 374/389/320
f 377/390/321 371/386/321 373/387/321 375/391/321
f 314/392/322 378/393/322 374/389/322 376/388/322
f 375/391/323 379/394/323 315/395/323 377/390/323
f 316/361/324 354/372/324 374/389/324 378/393/324
f 375/391/325 355/374/325 317/362/325 379/394/325
f 354/372/326 356/366/326 372/385/326 374/389/326
f 373/387/327 357/368/327 355/374/327 375/391/327
f 356/366/328 358/365/328 366/381/328 372/385/328
f 367/383/329 359/369/329 357/368/329 373/387/329
f 358/365/330 360/396/330 364/377/330 366/381/330
f 365/379/331 361/397/331 359/369/331 367/383/331
f 290/298/332 292/300/332 364/377/332 360/396/332
f 365/379/333 293/301/333 291/299/333 361/397/333
f 74/398/334 360/396/334 358/365/334 302/364/334
f 359/369/335 361/397/335 74/398/335 302/370/335
f 284/291/336 286/294/336 288/296/336 290/298/336
f 289/297/337 287/295/337 285/293/337 291/299/337
f 284/291/338 290/298/338 360/396/338 74/398/338
f 361/397/339 291/299/339 285/293/339 74/398/339
f 73/292/340 284/291/340 74/398/340
f 74/398/341 285/293/341 73/292/341
f 294/302/342 296/304/342 310/357/342 362/376/342
f 311/359/343 297/305/343 295/303/343 363/378/343
f 310/357/344 312/399/344 368/380/344 362/376/344
f 369/382/345 313/400/345 311/359/345 363/378/345
f 312/399/346 382/401/346 370/384/346 368/380/346
f 371/386/347 383/402/347 313/400/347 369/382/347
f 314/392/348 376/388/348 370/384/348 382/401/348
f 371/386/349 377/390/349 315/395/349 383/402/349
f 348/352/350 350/348/350 386/403/350 384/404/350
f 387/405/351 351/350/351 349/354/351 385/406/351
f 318/356/352 384/404/352 386/403/352 320/407/352
f 387/405/353 385/406/353 319/358/353 321/408/353
f 298/306/354 300/308/354 384/404/354 318/356/354
f 385/406/355 301/309/355 299/307/355 319/358/355
f 300/308/356 344/335/356 342/334/356 384/404/356
f 343/337/357 345/336/357 301/309/357 385/406/357
f 342/334/358 348/352/358 384/404/358
f 385/406/359 349/354/359 343/337/359
f 300/308/360 346/338/360 344/335/360
f 345/336/361 347/339/361 301/309/361
f 314/392/362 322/409/362 380/410/362 378/393/362
f 381/411/363 323/412/363 315/395/363 379/394/363
f 316/361/364 378/393/364 380/410/364 324/341/364
f 381/411/365 379/394/365 317/362/365 325/345/365
f 320/407/366 386/403/366 380/410/366 322/409/366
f 381/411/367 387/405/367 321/408/367 323/412/367
f 350/348/368 352/342/368 380/410/368 386/403/368
f 381/411/369 353/344/369 351/350/369 387/405/369
f 324/341/370 380/410/370 352/342/370
f 353/344/371 381/411/371 325/345/371
f 400/413/372 388/414/372 414/415/372 402/416/372
f 415/417/373 389/418/373 401/419/373 403/420/373
f 400/413/374 402/416/374 404/421/374 398/422/374
f 405/423/375 403/420/375 401/419/375 399/424/375
f 398/422/376 404/421/376 406/425/376 396/426/376
f 407/427/377 405/423/377 399/424/377 397/428/377
f 396/426/378 406/425/378 408/429/378 394/430/378
f 409/431/379 407/427/379 397/428/379 395/432/379
f 394/430/380 408/429/380 410/433/380 392/434/380
f 411/435/381 409/431/381 395/432/381 393/436/381
f 392/434/382 410/433/382 412/437/382 390/438/382
f 413/439/383 411/435/383 393/436/383 391/440/383
f 410/433/384 420/441/384 418/442/384 412/437/384
f 419/443/385 421/444/385 411/435/385 413/439/385
f 408/429/386 422/445/386 420/441/386 410/433/386
f 421/444/387 423/446/387 409/431/387 411/435/387
f 406/425/388 424/447/388 422/445/388 408/429/388
f 423/446/389 425/448/389 407/427/389 409/431/389
f 404/421/390 426/449/390 424/447/390 406/425/390
f 425/448/391 427/450/391 405/423/391 407/427/391
f 402/416/392 428/451/392 426/449/392 404/421/392
f 427/450/393 429/452/393 403/420/393 405/423/393
f 402/416/394 414/415/394 416/453/394 428/451/394
f 417/454/395 415/417/395 403/420/395 429/452/395
f 318/356/396 320/407/396 444/455/396 442/456/396
f 445/457/397 321/408/397 319/358/397 443/458/397
f 320/407/398 390/438/398 412/437/398 444/455/398
f 413/439/399 391/440/399 321/408/399 445/457/399
f 310/357/400 318/356/400 442/456/400 312/399/400
f 443/458/401 319/358/401 311/359/401 313/400/401
f 382/401/402 430/459/402 414/415/402 388/414/402
f 415/417/403 431/460/403 383/402/403 389/418/403
f 412/437/404 418/442/404 440/461/404 444/455/404
f 441/462/405 419/443/405 413/439/405 445/457/405
f 438/463/406 446/464/406 444/455/406 440/461/406
f 445/457/407 447/465/407 439/466/407 441/462/407
f 434/467/408 446/464/408 438/463/408 436/468/408
f 439/466/409 447/465/409 435/469/409 437/470/409
f 432/471/410 448/472/410 446/464/410 434/467/410
f 447/465/411 449/473/411 433/474/411 435/469/411
f 430/459/412 448/472/412 432/471/412 450/475/412
f 433/474/413 449/473/413 431/460/413 451/476/413
f 414/415/414 430/459/414 450/475/414 416/453/414
f 451/476/415 431/460/415 415/417/415 417/454/415
f 312/399/416 448/472/416 430/459/416 382/401/416
f 431/460/417 449/473/417 313/400/417 383/402/417
f 312/399/418 442/456/418 446/464/418 448/472/418
f 447/465/419 443/458/419 313/400/419 449/473/419
f 442/456/420 444/455/420 446/464/420
f 447/465/421 445/457/421 443/458/421
f 416/453/422 450/475/422 452/477/422 476/478/422
f 453/479/423 451/476/423 417/454/423 477/480/423
f 450/475/424 432/471/424 462/481/424 452/477/424
f 463/482/425 433/474/425 451/476/425 453/479/425
f 432/471/426 434/467/426 460/483/426 462/481/426
f 461/484/427 435/469/427 433/474/427 463/482/427
f 434/467/428 436/468/428 458/485/428 460/483/428
f 459/486/429 437/470/429 435/469/429 461/484/429
f 436/468/430 438/463/430 456/487/430 458/485/430
f 457/488/431 439/466/431 437/470/431 459/486/431
f 438/463/432 440/461/432 454/489/432 456/487/432
f 455/490/433 441/462/433 439/466/433 457/488/433
f 440/461/434 418/442/434 474/491/434 454/489/434
f 475/492/435 419/443/435 441/462/435 455/490/435
f 428/451/436 416/453/436 476/478/436 464/493/436
f 477/480/437 417/454/437 429/452/437 465/494/437
f 426/449/438 428/451/438 464/493/438 466/495/438
f 465/494/439 429/452/439 427/450/439 467/496/439
f 424/447/440 426/449/440 466/495/440 468/497/440
f 467/496/441 427/450/441 425/448/441 469/498/441
f 422/445/442 424/447/442 468/497/442 470/499/442
f 469/498/443 425/448/443 423/446/443 471/500/443
f 420/441/444 422/445/444 470/499/444 472/501/444
f 471/500/445 423/446/445 421/444/445 473/502/445
f 418/442/446 420/441/446 472/501/446 474/491/446
f 473/502/447 421/444/447 419/443/447 475/492/447
f 458/485/448 456/487/448 480/503/448 478/504/448
f 481/505/449 457/488/449 459/486/449 479/506/449
f 478/504/450 480/503/450 482/507/450 484/508/450
f 483/509/451 481/505/451 479/506/451 485/510/451
f 484/508/452 482/507/452 488/511/452 486/512/452
f 489/513/453 483/509/453 485/510/453 487/514/453
f 486/512/454 488/511/454 490/515/454 492/516/454
f 491/517/455 489/513/455 487/514/455 493/518/455
f 464/493/456 476/478/456 486/512/456 492/516/456
f 487/514/457 477/480/457 465/494/457 493/518/457
f 452/477/458 484/508/458 486/512/458 476/478/458
f 487/514/459 485/510/459 453/479/459 477/480/459
f 452/477/460 462/481/460 478/504/460 484/508/460
f 479/506/461 463/482/461 453/479/461 485/510/461
f 458/485/462 478/504/462 462/481/462 460/483/462
f 463/482/463 479/506/463 459/486/463 461/484/463
f 454/489/464 474/491/464 480/503/464 456/487/464
f 481/505/465 475/492/465 455/490/465 457/488/465
f 472/501/466 482/507/466 480/503/466 474/491/466
f 481/505/467 483/509/467 473/502/467 475/492/467
f 470/499/468 488/511/468 482/507/468 472/501/468
f 483/509/469 489/513/469 471/500/469 473/502/469
f 468/497/470 490/515/470 488/511/470 470/499/470
f 489/513/471 491/517/471 469/498/471 471/500/471
f 466/495/472 492/516/472 490/515/472 468/497/472
f 491/517/473 493/518/473 467/496/473 469/498/473
f 464/493/474 492/516/474 466/495/474
f 467/496/475 493/518/475 465/494/475
f 392/434/476 390/438/476 504/519/476 502/520/476
f 505/521/477 391/440/477 393/436/477 503/522/477
f 394/430/478 392/434/478 502/520/478 500/523/478
f 503/522/479 393/436/479 395/432/479 501/524/479
f 396/426/480 394/430/480 500/523/480 498/525/480
f 501/524/481 395/432/481 397/428/481 499/526/481
f 398/422/482 396/426/482 498/525/482 496/527/482
f 499/526/483 397/428/483 399/424/483 497/528/483
f 400/413/484 398/422/484 496/527/484 494/529/484
f 497/528/485 399/424/485 401/419/485 495/530/485
f 388/414/486 400/413/486 494/529/486 506/531/486
f 495/530/487 401/419/487 389/418/487 507/532/487
f 494/529/488 502/520/488 504/519/488 506/531/488
f 505/521/489 503/522/489 495/530/489 507/532/489
f 494/529/490 496/527/490 500/523/490 502/520/490
f 501/524/491 497/528/491 495/530/491 503/522/491
f 496/527/492 498/525/492 500/523/492
f 501/524/493 499/526/493 497/528/493
f 314/392/494 382/401/494 388/414/494 506/531/494
f 389/418/495 383/402/495 315/395/495 507/532/495
f 314/392/496 506/531/496 504/519/496 322/409/496
f 505/521/497 507/532/497 315/395/497 323/412/497
f 320/407/498 322/409/498 504/519/498 390/438/498
f 505/521/499 323/412/499 321/408/499 391/440/499
